Ass_pipelining/pipe2.vcd
$date
    Apr  4, 2022  16:17:56
$end
$version
    TOOL:	ncsim(64)	15.20-s051
$end
$timescale
    1 ns
$end

$scope module pipe2_test $end
$var wire     16 !    Z [15:0] $end
$var reg       4 "    rs1 [3:0] $end
$var reg       4 #    rs2 [3:0] $end
$var reg       4 $    rd [3:0] $end
$var reg       4 %    func [3:0] $end
$var reg       8 &    addr [7:0] $end
$var reg       1 '    clk1  $end
$var reg       1 (    clk2  $end
$var integer  32 )    k  $end

$scope module MYPIPE $end
$var wire      4 *    rs1 [3:0] $end
$var wire      4 +    rs2 [3:0] $end
$var wire      4 ,    rd [3:0] $end
$var wire      4 -    func [3:0] $end
$var wire      8 .    addr [7:0] $end
$var wire      1 /    clk1  $end
$var wire      1 0    clk2  $end
$var wire     16 !    Zout [15:0] $end
$var reg      16 1    L12_A [15:0] $end
$var reg      16 2    L12_B [15:0] $end
$var reg      16 3    L23_Z [15:0] $end
$var reg      16 4    L34_Z [15:0] $end
$var reg       4 5    L12_rd [3:0] $end
$var reg       4 6    L12_func [3:0] $end
$var reg       4 7    L23_rd [3:0] $end
$var reg       8 8    L12_addr [7:0] $end
$var reg       8 9    L23_addr [7:0] $end
$var reg       8 :    L34_addr [7:0] $end
$upscope $end

$upscope $end

$enddefinitions $end
$dumpvars
bx !
bx "
bx #
bx $
bx %
bx &
0'
0(
b10000 )
bx *
bx +
bx ,
bx -
bx .
0/
00
bx 1
bx 2
bx 3
bx 4
bx 5
bx 6
bx 7
bx 8
bx 9
bx :
$end
#5
1'
b11 "
b101 #
b1010 $
b0 %
b1111101 &
b1111101 .
b0 -
b1010 ,
b101 +
b11 *
1/
#7
b11 1
b101 2
b1010 5
b0 6
b1111101 8
#10
0'
0/
#15
1(
10
#20
0(
00
#22
b1000 3
b1010 7
b1111101 9
#25
b1000 #
b1100 $
b10 %
b1111110 &
1'
1/
b1111110 .
b10 -
b1100 ,
b1000 +
#27
b1000 4
b1111101 :
b1000 2
b1100 5
b10 6
b1111110 8
b1000 !
#30
0'
0/
#35
1(
10
#40
0(
00
#42
b11000 3
b1100 7
b1111110 9
#45
b1010 "
b101 #
b1110 $
b1 %
b10000000 &
1'
1/
b10000000 .
b1 -
b1110 ,
b101 +
b1010 *
#47
b11000 4
b1111110 :
b1000 1
b101 2
b1110 5
b1 6
b10000000 8
b11000 !
#50
0'
0/
#55
1(
10
#60
0(
00
#62
b11 3
b1110 7
b10000000 9
#65
b111 "
b11 #
b1101 $
b1011 %
b1111111 &
1'
1/
b1111111 .
b1011 -
b1101 ,
b11 +
b111 *
#67
b11 4
b10000000 :
b111 1
b11 2
b1101 5
b1011 6
b1111111 8
b11 !
#70
0'
0/
#75
1(
10
#80
0(
00
#82
b1110 3
b1101 7
b1111111 9
#85
b1010 "
b101 #
b1111 $
b1 %
b10000001 &
1'
1/
b10000001 .
b1 -
b1111 ,
b101 +
b1010 *
#87
b1110 4
b1111111 :
b1000 1
b101 2
b1111 5
b1 6
b10000001 8
b1110 !
#90
0'
0/
#95
1(
10
#100
0(
00
#102
b11 3
b1111 7
b10000001 9
#105
b1100 "
b1101 #
b0 $
b0 %
b10000010 &
1'
1/
b10000010 .
b0 -
b0 ,
b1101 +
b1100 *
#107
b11 4
b10000001 :
b11000 1
b1110 2
b0 5
b0 6
b10000010 8
b11 !
#110
0'
0/
#115
1(
10
#120
0(
00
#122
b100110 3
b0 7
b10000010 9
#125
1'
1/
#127
b100110 4
b10000010 :
b100110 !
#130
0'
0/
#135
1(
10
#140
0(
00
#145
1'
1/
#150
0'
0/
#155
1(
10
#160
0(
00
#165
b1111101 )
b1111110 )
b1111111 )
b10000000 )
b10000001 )
b10000010 )
b10000011 )
1'
1/
